C:\Users\KAVII\eclipse-workspace\junit-5-basics\src\test\java\com\junit_5_suites\MathUtilsFloatTest.java
C:\Users\KAVII\eclipse-workspace\junit-5-basics\src\test\java\com\junit_5_basics\MathUtilsTest.java
C:\Users\KAVII\eclipse-workspace\junit-5-basics\src\test\java\com\junit_5_suites\AllUnitTest.java
C:\Users\KAVII\eclipse-workspace\junit-5-basics\src\test\java\com\junit_5_suites\MathUtilsDoubleTest.java
C:\Users\KAVII\eclipse-workspace\junit-5-basics\src\test\java\com\junit_5_suites\MathUtilsIntTest.java
